%YAML 1.1
%TAG !u! tag:unity3d.com,2011:
--- !u!114 &11400000
MonoBehaviour:
  m_ObjectHideFlags: 0
  m_CorrespondingSourceObject: {fileID: 0}
  m_PrefabInstance: {fileID: 0}
  m_PrefabAsset: {fileID: 0}
  m_GameObject: {fileID: 0}
  m_Enabled: 1
  m_EditorHideFlags: 0
  m_Script: {fileID: 11500000, guid: b74fdd45a1ab48f4ba76830b0629f8a5, type: 3}
  m_Name: CanvasLootCreator
  m_EditorClassIdentifier: 
  serializationData:
    SerializedFormat: 2
    SerializedBytes: 
    ReferencedUnityObjects:
    - {fileID: 5459747511356552424, guid: 4f2732cea60754b4caa5301360e144be, type: 3}
    - {fileID: 11400000, guid: 977951f2800e2cd4394ba11819d29865, type: 2}
    SerializedBytesString: 
    Prefab: {fileID: 0}
    PrefabModificationsReferencedUnityObjects: []
    PrefabModifications: []
    SerializationNodes:
    - Name: prefabLootManagerPairs
      Entry: 7
      Data: 0|System.Collections.Generic.List`1[[BlackCaviarGame.TestDiggerGame.LootsFromPrefabCreator`1+PrefabLootManagerPair[[BlackCaviarGame.TestDiggerGame.CanvasLootManager,
        Assembly-CSharp]], Assembly-CSharp]], mscorlib
    - Name: 
      Entry: 12
      Data: 1
    - Name: 
      Entry: 7
      Data: 1|BlackCaviarGame.TestDiggerGame.LootsFromPrefabCreator`1+PrefabLootManagerPair[[BlackCaviarGame.TestDiggerGame.CanvasLootManager,
        Assembly-CSharp]], Assembly-CSharp
    - Name: LootManager
      Entry: 10
      Data: 0
    - Name: loot
      Entry: 10
      Data: 1
    - Name: 
      Entry: 8
      Data: 
    - Name: 
      Entry: 13
      Data: 
    - Name: 
      Entry: 8
      Data: 
  OnPreCreate:
    m_PersistentCalls:
      m_Calls: []
