%YAML 1.1
%TAG !u! tag:unity3d.com,2011:
--- !u!1045 &1
EditorBuildSettings:
  m_ObjectHideFlags: 0
  serializedVersion: 2
  m_Scenes:
  - enabled: 0
    path: Assets/Scenes/CanvasSettingScene.unity
    guid: d1c3109bdb54ad54c8a2b2838528e640
  - enabled: 1
    path: Assets/Scenes/MainScene.unity
    guid: c4a12468729def74482589d9282e2abc
  - enabled: 1
    path: Assets/Scenes/levelScene.unity
    guid: 89d3b8bece9a1c64d8139ba7c291e7c6
  m_configObjects: {}
